{"id": "binhum",
 "title": "",
 "sub_title": "",
 "description": "",
 "main_template": "likesubstanced:templates/main_template.pt",
 "ui_languages": "",
 "content_languages": "",
 "batch_size": 100,
 "logo": "substancedsite:static/logo.png",
 "logo_url": "http://wiki.binhum.net/web/",
 "html_mission_statement": "Das <span style=\"color:#7e0000; font-weight:700;\">BiNHum-Portal</span>  ist ein Gemeinschaftsprojekt des Humboldt-Rings und ermöglicht die Abfrage von Biodiversitäts- daten verschiedener Institute.",
 "graphic": "substancedsite:static/graphic.png",
 "footer_1": "The project \"Biodiversitäts-Netzwerk des Humboldt-Rings – BiNHum\" is funded under the LIS infrastructure platform (GZ: BE 2283/8-1, ED 180/2-1, HA 2598/16-1, LE 2877/1-1, WA 530/51-1).",
 "footer_2": "Mitglieder: Museum für Naturkunde (MNHU), Staatliches Museum für Naturkunde Karlsruhe (SMNK), Staatliches Museum für Naturkunde Stuttgart, Staatliche Naturwissenschaftliche Sammlungen Bayerns (SNSB), das Zoologische Forschungsmuseum Alexander König in Bonn (ZFMK) sowie der Botanische Garten und Botanisches Museum Berlin-Dahlem.",
 "css_url": ""}
